{
    "KPlugin": {
        "Authors": [
            {
                "Email": "drf@kdemod.ath.cx",
                "Name": "Dario Freddi",
                "Name[ar]": "داريو فريدي",
                "Name[he]": "דריו פרדי",
                "Name[ta]": "டாரியோ ஃபிரெடி",
                "Name[x-test]": "xxDario Freddixx"
            }
        ],
        "Description": "Basic Power Management Operations",
        "Description[ar]": "عمليات إدارة الطاقة الأساسية",
        "Description[bg]": "Основни операции на управление на захранването",
        "Description[ca@valencia]": "Operacions bàsiques de gestió de l'energia",
        "Description[ca]": "Operacions bàsiques de gestió d'energia",
        "Description[cs]": "Základní úkony týkající se správy napájení",
        "Description[eo]": "Bazaj Energi-Administraj Funkcioj",
        "Description[es]": "Operaciones básicas de gestión de energía",
        "Description[eu]": "Energia-kudeaketako oinarrizko eragiketak",
        "Description[fr]": "Opérations basiques concernant la gestion de l'énergie ",
        "Description[gl]": "Operacións básicas de xestión da enerxía.",
        "Description[he]": "הגדרות ניהול צריכת חשמל בסיסיות",
        "Description[ia]": "Operationes basic de gestion de energia",
        "Description[is]": "Grunnaðgerðir orkustýringar",
        "Description[it]": "Operazioni di base per la gestione energetica",
        "Description[ka]": "კვების მართვის ძირითადი ოპერაციები",
        "Description[ko]": "기본 전원 관리 작업",
        "Description[lt]": "Pagrindinės maitinimo valdymo operacijos",
        "Description[nl]": "Basis energiebeheeroperaties",
        "Description[nn]": "Grunnleggjande straumstyringsfunksjonar",
        "Description[pa]": "ਮੁੱਢਲੀਆਂ ਪਾਵਰ ਇੰਤਜ਼ਾਮ ਕਾਰਵਾਈਆਂ",
        "Description[pl]": "Umożliwia zarządzanie energią",
        "Description[ru]": "Управление питанием",
        "Description[sl]": "Osnovne operacije upravljanja porabe energije",
        "Description[sv]": "Grundinställningar av strömhantering",
        "Description[ta]": "அடிப்படை ஆற்றல் மேலாண்மை செயல்கள்",
        "Description[tr]": "Temel güç yönetimi işlemleri",
        "Description[uk]": "Керування базовими операціями з керування живленням",
        "Description[x-test]": "xxBasic Power Management Operationsxx",
        "Description[zh_CN]": "基本电源管理操作",
        "Description[zh_TW]": "基本的電源管理操作",
        "EnabledByDefault": true,
        "Icon": "preferences-system-power-management",
        "License": "GPL",
        "Name": "Power",
        "Name[ar]": "الطاقة",
        "Name[bg]": "Захранване",
        "Name[ca@valencia]": "Energia",
        "Name[ca]": "Energia",
        "Name[cs]": "Energie",
        "Name[eo]": "Energio",
        "Name[es]": "Energía",
        "Name[eu]": "Energia",
        "Name[fr]": "Énergie",
        "Name[gl]": "Enerxía",
        "Name[he]": "כיבוי",
        "Name[ia]": "Energia",
        "Name[is]": "Orka",
        "Name[it]": "Alimentazione",
        "Name[ka]": "კვება",
        "Name[ko]": "전원",
        "Name[lt]": "Maitinimas",
        "Name[nl]": "Energie",
        "Name[nn]": "Straum",
        "Name[pa]": "ਪਾਵਰ",
        "Name[pl]": "Zasilanie",
        "Name[ru]": "Электропитание",
        "Name[sl]": "Napajanje",
        "Name[sv]": "Ström",
        "Name[ta]": "ஆற்றல்",
        "Name[tr]": "Güç",
        "Name[uk]": "Живлення",
        "Name[x-test]": "xxPowerxx",
        "Name[zh_CN]": "电源",
        "Name[zh_TW]": "電源"
    },
    "X-Plasma-ShowDesciptionInOverview": true
}
